{
    "APPRAISAL_ID": "005056B9D0061EDA8DD995199CDF49B0",
    "ID_EVAL_PROC": "00100070",
    "PERNR_MEMID": "",
    "PHOTO": "/sap/bc/ui5_ui5/sap/ZHCM_XSS_IMAGES/female.jpg",
    "APPRAISER": "04000996",
    "APPRAISER_NAME": "Кузнецов Алексей Арсеньевич",
    "BUTTON": "",
    "IS_APPROVER": false,
    "COLL_MIN": "000",
    "COLL_MAX": "000",
    "COLL_APPROVE": false,
    "FIO": "Зимина Ольга Александровна",
    "PERNR": "04001016",
    "PLANS": "13039455",
    "PLANS_TXT": "Начальник отдела",
    "ORGEH": "13039454",
    "ORGEH_TXT": "Группа 02_отдел_вербальное длинное-предлинное описание подразделения. Группа 02_отдел_вербальное длинное-предлинное описание подразделения. Группа 02_отдел_вербальное длинное-предлинное описание подразделения.",
    "COMPANY": "13039169",
    "COMPANY_TXT": "Группа 02",
    "MIN_EXP": "000",
    "EmplSetTableSet": {
      "results": [
        {
          "ORGPATH_OF_3": "МПО \"Норильскавтоматика\" / ЦЭРИТ / участок ЭРИТ №2",
          "FIO": "Сидоров Андрей ",
          "PHOTO": "/sap/bc/ui5_ui5/sap/ZHCM_XSS_IMAGES/male.jpg",
          "PERNR": "20259998",
          "PLANS": "54314158",
          "PLANS_TXT": "слесарь по контрольно-измерительным приборам и автоматике",
          "ORGEH": "53300735",
          "ORGEH_TXT": "Участок эксплуатации и ремонта измерительной техники №2",
          "COMPANY": "53300502",
          "COMPANY_TXT": "МПО \"Норильскавтоматика\""
        },
        {
          "ORGPATH_OF_3": "ЭСТОП / 22 Узел электротехнического обеспечения",
          "FIO": "Петров Андрей Сергеевич",
          "PHOTO": "/sap/bc/ui5_ui5/sap/ZHCM_XSS_IMAGES/male.jpg",
          "PERNR": "47026903",
          "PLANS": "50150235",
          "PLANS_TXT": "Электромонтёр по ремонту и обслуживанию электрооборудования 5 разряда",
          "ORGEH": "50020376",
          "ORGEH_TXT": "Служба электро светотехнического обеспечения полетов, узел электротехнического",
          "COMPANY": "50020373",
          "COMPANY_TXT": "ЭСТОП"
        }
      ]
    }
 }